{
  "data": [
    {
      "addressId": "12122",
      "addressType": {
        "id": "LEGAL",
        "name": "Dirección Legal"
      },
      "ownershipType": {
        "id": "OWNER",
        "name": "Propietario"
      },
      "location": {
        "addressName": "Avenida República de Ecuador 1234 Piso 2 Interior 205 Urbanización Corpac",
        "city": "Lima",
        "state": {
          "id":"LI",
          "name":"Lima"
        },
        "country": {
          "id": "PE",
          "name": "Perú"
        },
        "zipCode": "34566",
        "geolocation": {
          "latitude": 40.814505,
          "longitude": -74.07272910000002
        },
        "additionalInformation": "COSTADO COLEGIO SAN AGUSTIN",
        "geographicGroups": [
          {
            "geographicGroupsType": {
              "id": "UBIGEO",
              "name": "Ubigeo"
            },
            "code": "0101004",
            "name": "Lima, Lima, San Isidro"
          },
          {
            "geographicGroupsType": {
              "id": "URBANIZATION",
              "name": "Urbanización"
            },
            "name": "Corpac"
          },
          {
            "geographicGroupsType": {
              "id": "AVENUE",
              "name": "Avenida"
            },
            "name": "República de Ecuador"
          },
          {
            "geographicGroupsType": {
              "id": "EXTERIOR_NUMBER",
              "name": "Número exterior"
            },
            "name": "1234"
          },
          {
            "geographicGroupsType": {
              "id": "FLOOR",
              "name": "Piso"
            },
            "name": "2"
          },
          {
            "geographicGroupsType": {
              "id": "INTERIOR_NUMBER",
              "name": "Número interior"
            },
            "name": "205"
          },
          {
            "geographicGroupsType": {
              "id": "DOOR",
              "name": "Puerta"
            },
            "name": "B"
          }
        ]
      }
    },
    {
      "addressId": "12123",
      "addressType": {
        "id": "POSTAL",
        "name": "Dirección para comunicados postales del cliente"
      },
      "location": {
        "addressName": "Paseo de la florida 1, 5° A, 28000 Madrid",
        "city": "Madrid",
        "state": {
          "id":"MA",
          "name":"Madrid"
        },
        "country": {
          "id": "ES",
          "name": "España"
        },
        "zipCode": "28000",
        "geolocation": {
          "latitude": 40.814505,
          "longitude": 3.07272910000002
        },
        "additionalInformation": "Enfrente de la Estación",
        "geographicGroups": [
          {
            "geographicGroupsType": {
              "id": "DISTRITO",
              "name": "distrito"
            },
            "code": "05",
            "name": "chamartín"
          },
          {
            "geographicGroupsType": {
              "id": "BARRIO",
              "name": "barrio"
            },
            "code": "56",
            "name": "Castilla"
          }
        ]
      },
      "ownershipType": {
        "id": "OWNER",
        "name": "Propietario"
      }
    },
    {
      "id": "12125",
      "addressType": {
        "id": "POSTAL",
        "name": "Dirección familiar"
      },
      "location": {
        "addressName": "Avenida Juan Escutia 23 Int 1 ",
        "city": "Puebla City",

        "state": {
          "id":"PU",
          "name":"Puebla"
        },
        "country": {
          "id": "MX",
          "name": "México"
        },
        "zipCode": "06140",
        "geolocation": {
          "latitude": 19.814505,
          "longitude": -99.07272910000002
        },
        "additionalInformation": "Al lado de la taqueria",
        "geographicGroups": [
          {
            "geographicGroupsType": {
              "id": "DELEGACION",
              "name": "Delegación"
            },
            "code": "015",
            "name": "Cuauhtemoc"
          },
          {
            "geographicGroupsType": {
              "id": "COLONIA",
              "name": "colonia"
            },
            "name": "Condesa"
          }
        ]
      },
      "ownershipType": {
        "id": "OWNER",
        "name": "Propietario"
      }
    }
  ]
}
